<svg width="7" height="13" viewBox="0 0 7 13" fill="none" xmlns="http://www.w3.org/2000/svg">
<path d="M0.137094 0.590185C-0.0454339 0.768577 -0.0457141 1.05805 0.136417 1.23683L4.97564 5.98592C5.15768 6.16422 5.15766 6.45427 4.97529 6.63289L0.136418 11.3816C-0.045737 11.5604 -0.0454333 11.8499 0.137095 12.0283C0.319623 12.2067 0.615231 12.2064 0.797362 12.0276L5.63591 7.27919C5.90901 7.01169 6.04553 6.66041 6.04553 6.3091C6.04553 5.95798 5.90906 5.6068 5.63624 5.33964L0.797361 0.590849C0.61523 0.412115 0.319623 0.411818 0.137094 0.590185Z" fill="#047884"/>
</svg>
