<svg width="10" height="10" viewBox="0 0 10 10" fill="none" xmlns="http://www.w3.org/2000/svg">
<g clip-path="url(#clip0)">
<path d="M5.89188 5L9.93451 0.957588C10.0215 0.870467 10.0215 0.729305 9.93451 0.642184L9.35795 0.065314C9.31613 0.0235973 9.25924 0 9.20015 0C9.14094 0 9.08416 0.0235973 9.04234 0.065314L4.99982 4.10783L0.957299 0.065314C0.873549 -0.0184354 0.725329 -0.0183301 0.64179 0.065314L0.0653404 0.642184C-0.0217801 0.729305 -0.0217801 0.870467 0.0653404 0.957588L4.10786 5L0.0653404 9.04241C-0.0217801 9.12953 -0.0217801 9.27069 0.0653404 9.35782L0.641895 9.93469C0.683717 9.9764 0.740498 10 0.799702 10C0.858906 10 0.915582 9.9764 0.957404 9.93469L4.99992 5.89217L9.04244 9.93469C9.08427 9.9764 9.14115 10 9.20025 10C9.25935 10 9.31624 9.9764 9.35806 9.93469L9.93461 9.35782C10.0216 9.27069 10.0216 9.12953 9.93461 9.04241L5.89188 5Z" fill="white"/>
</g>
<defs>
<clipPath id="clip0">
<rect width="10" height="10" fill="white"/>
</clipPath>
</defs>
</svg>
