<svg width="20" height="20" viewBox="0 0 20 20" fill="none" xmlns="http://www.w3.org/2000/svg">
<path d="M18.5059 4.72837L18.4775 4.6826C17.5662 3.23134 16.2974 2.03859 14.7927 1.21876C13.288 0.398936 11.5979 -0.0204716 9.88451 0.000768422C8.17114 0.0220085 6.49196 0.483184 5.00803 1.34006C3.52411 2.19694 2.28522 3.42077 1.4102 4.89418C0.424195 6.54725 -0.0632274 8.45004 0.00657194 10.3736C0.0763712 12.2972 0.700418 14.1597 1.80364 15.7369C2.90686 17.3142 4.44225 18.539 6.22511 19.2641C8.00797 19.9893 9.96234 20.1837 11.8531 19.8242C11.8611 19.8231 11.8685 19.8215 11.8761 19.8197C12.0763 19.7813 12.2761 19.7367 12.4753 19.686C13.9959 19.2964 15.4036 18.5546 16.5846 17.5204C17.7655 16.4862 18.6867 15.1888 19.2738 13.7328C19.8608 12.2769 20.0972 10.7032 19.9638 9.13902C19.8305 7.57482 19.3311 6.06392 18.5061 4.72837H18.5059ZM8.58971 0.583723C9.06387 0.511291 9.54284 0.474829 10.0225 0.474649C10.1579 0.474649 10.2931 0.477663 10.428 0.483692C10.2865 1.09866 10.2699 1.73579 10.3791 2.35731C10.4883 2.97884 10.7212 3.57211 11.0639 4.10197C11.0809 4.12834 11.1029 4.15111 11.1287 4.16896C11.1546 4.18682 11.1836 4.19941 11.2143 4.20602C11.245 4.21264 11.2767 4.21314 11.3076 4.20751C11.3384 4.20188 11.3679 4.19022 11.3943 4.1732C11.4206 4.15618 11.4434 4.13413 11.4613 4.10831C11.4791 4.08249 11.4917 4.05341 11.4983 4.02273C11.5049 3.99204 11.5054 3.96035 11.4998 3.92947C11.4942 3.89859 11.4825 3.86912 11.4655 3.84275C11.1505 3.35581 10.9388 2.80938 10.8435 2.23729C10.7482 1.6652 10.7714 1.07964 10.9116 0.516876C11.478 0.570671 12.0384 0.675768 12.5858 0.830875C12.4394 1.15908 12.3664 1.51527 12.3717 1.87462C12.3727 1.93739 12.3983 1.99726 12.443 2.04133C12.4877 2.08539 12.5479 2.11012 12.6107 2.11018H12.6147C12.6461 2.10982 12.6772 2.10324 12.7061 2.09081C12.735 2.07838 12.7611 2.06034 12.783 2.03774C12.8049 2.01515 12.822 1.98844 12.8335 1.95916C12.845 1.92988 12.8506 1.89861 12.8499 1.86717C12.8453 1.55822 12.9126 1.25244 13.0465 0.973971C14.3177 1.40616 15.4845 2.09919 16.4723 3.00863C16.2789 3.27652 16.0222 3.49234 15.725 3.63681C15.4278 3.78129 15.0996 3.84993 14.7694 3.83661C14.4393 3.82329 14.1176 3.72841 13.833 3.56046C13.5485 3.39251 13.3099 3.15671 13.1387 2.8741C13.1228 2.84663 13.1016 2.82261 13.0763 2.80343C13.051 2.78426 13.0221 2.77031 12.9914 2.76242C12.9606 2.75453 12.9286 2.75284 12.8972 2.75745C12.8658 2.76207 12.8356 2.77289 12.8084 2.7893C12.7812 2.80571 12.7576 2.82736 12.7389 2.85301C12.7202 2.87865 12.7068 2.90776 12.6994 2.93865C12.6921 2.96954 12.691 3.00158 12.6961 3.03291C12.7013 3.06423 12.7127 3.09421 12.7296 3.12109C13.0042 3.5768 13.4184 3.93178 13.9108 4.13329C14.4032 4.3348 14.9474 4.3721 15.4627 4.23965C16.003 4.10334 16.4809 3.78756 16.8183 3.34402C17.2166 3.7502 17.5772 4.19171 17.8957 4.66312C17.5567 4.97392 17.1697 5.2278 16.7497 5.41493C16.7239 5.39717 16.6979 5.37996 16.6706 5.36382C16.3714 5.18664 16.0157 5.13079 15.6766 5.20774C15.3374 5.28468 15.0406 5.48859 14.8472 5.77757C14.1469 5.74757 13.465 5.54445 12.8625 5.18639C12.808 5.15468 12.7433 5.14578 12.6823 5.16162C12.6213 5.17745 12.569 5.21675 12.5368 5.27095C12.5046 5.32515 12.4952 5.38986 12.5105 5.45101C12.5258 5.51215 12.5646 5.56478 12.6185 5.59743C13.2372 5.9649 13.9317 6.18607 14.649 6.24403C14.5923 6.5037 14.6134 6.7743 14.7096 7.02206C14.7324 7.08122 14.7778 7.1289 14.8357 7.15461C14.8937 7.18031 14.9595 7.18193 15.0187 7.15912C15.0778 7.1363 15.1255 7.09092 15.1512 7.03294C15.1769 6.97497 15.1785 6.90917 15.1557 6.85C15.1114 6.7362 15.0914 6.61439 15.097 6.4924C15.1026 6.37041 15.1336 6.25093 15.1881 6.14165C15.1934 6.13286 15.1981 6.12375 15.2022 6.11436C15.2079 6.10372 15.2137 6.09309 15.2199 6.08249C15.3088 5.9327 15.4401 5.81265 15.5973 5.73751C15.7544 5.66238 15.9303 5.63553 16.1028 5.66038C16.2752 5.68522 16.4363 5.76063 16.5659 5.87708C16.6954 5.99353 16.7875 6.14578 16.8306 6.31458C16.8383 6.345 16.852 6.37359 16.8708 6.39872C16.8896 6.42386 16.9132 6.44504 16.9402 6.46106C16.9671 6.47709 16.997 6.48763 17.0281 6.49211C17.0592 6.49658 17.0908 6.49489 17.1212 6.48714C17.1516 6.47938 17.1802 6.46571 17.2053 6.44691C17.2305 6.4281 17.2516 6.40453 17.2677 6.37754C17.2837 6.35055 17.2942 6.32066 17.2987 6.2896C17.3032 6.25853 17.3015 6.22688 17.2937 6.19647C17.2557 6.04647 17.1924 5.90407 17.1065 5.77538C17.4862 5.58867 17.8393 5.35207 18.1564 5.07185C18.6157 5.83576 18.9658 6.66026 19.1963 7.5213C18.2012 8.50499 16.9158 9.14197 15.5305 9.33789C14.0727 9.54786 12.5871 9.24927 11.3236 8.49234C10.8663 8.22081 10.2746 7.65292 9.85875 7.22435C9.74225 7.10208 9.65465 6.95524 9.60238 6.79464C9.55012 6.63404 9.53452 6.46376 9.55673 6.29634C9.60853 5.86248 9.53332 5.42292 9.34021 5.03099C9.1471 4.63905 8.84441 4.31159 8.46885 4.08835L8.46535 4.08627C8.40247 4.05052 8.34996 3.99905 8.31295 3.93689C8.27594 3.87474 8.25571 3.80404 8.25423 3.73172C8.24682 3.07576 8.26682 1.50122 8.58971 0.583723ZM12.3573 19.2228C12.1773 19.2687 11.9967 19.3086 11.8159 19.3439C10.0942 19.0307 8.48475 18.4532 7.03196 17.6263C7.00468 17.6108 6.97461 17.6008 6.94346 17.5969C6.91232 17.593 6.88071 17.5953 6.85045 17.6036C6.82018 17.6119 6.79185 17.6261 6.76707 17.6453C6.74229 17.6646 6.72154 17.6886 6.70602 17.7158C6.6905 17.7431 6.6805 17.7732 6.6766 17.8043C6.6727 17.8355 6.67497 17.8671 6.68328 17.8974C6.69159 17.9276 6.70579 17.956 6.72505 17.9808C6.74431 18.0055 6.76827 18.0263 6.79555 18.0418C7.92652 18.6827 9.13449 19.1769 10.3903 19.5125C8.2109 19.5993 6.06774 18.9353 4.31901 17.6316C2.57028 16.3278 1.32192 14.4634 0.782589 12.3497C0.71158 12.071 0.65349 11.7913 0.608319 11.5106C0.869279 12.0197 1.15741 12.5144 1.47146 12.9925C1.50634 13.0453 1.56069 13.082 1.62261 13.0948C1.68453 13.1075 1.74898 13.0952 1.80184 13.0605C1.85471 13.0259 1.89169 12.9717 1.90468 12.9098C1.91768 12.8479 1.90564 12.7834 1.87119 12.7304C0.907266 11.2604 0.509453 10.1177 0.504036 10.1018C0.498855 10.0866 0.492183 10.072 0.48412 10.0582C0.47229 8.52636 0.833556 7.01468 1.53671 5.65376C1.61809 6.38131 1.81785 7.25861 2.13496 8.2757C2.49844 9.44147 2.93409 10.5319 3.23559 11.2414C3.36464 11.5533 3.43161 11.8875 3.43276 12.2251C3.44037 12.781 3.65288 13.3145 4.02956 13.7234C4.40624 14.1322 4.92057 14.3876 5.47393 14.4406C5.74276 14.4632 6.00039 14.5585 6.2192 14.7163C6.54982 14.9603 7.01088 15.291 7.3309 15.4812C8.60478 16.2403 10.0095 16.7541 11.4725 16.996C11.8088 17.0525 12.1238 17.1977 12.3851 17.4166C12.4411 17.4646 12.5008 17.508 12.5637 17.5465C12.9327 17.7667 13.3622 17.8639 13.79 17.8238C14.2179 17.7838 14.6219 17.6087 14.9437 17.3238C15.1836 17.1105 15.4732 16.9608 15.786 16.8884C16.1019 16.8172 16.4801 16.7271 16.839 16.6299C15.6153 17.8944 14.0633 18.7923 12.3573 19.2228ZM18.1907 14.8584C17.9653 15.2378 17.7141 15.6014 17.439 15.9466C16.968 16.1176 16.2293 16.2984 15.6808 16.4221C15.2898 16.5122 14.9276 16.699 14.6274 16.9653C14.3814 17.1831 14.0725 17.317 13.7453 17.3476C13.4182 17.3782 13.0898 17.3039 12.8076 17.1355C12.7667 17.1098 12.7279 17.0811 12.6914 17.0494C12.3647 16.7758 11.9708 16.5945 11.5505 16.5241C10.1461 16.292 8.79771 15.7988 7.57492 15.0701C7.27191 14.8902 6.82478 14.5693 6.50305 14.3318C6.21438 14.1224 5.87417 13.9955 5.5189 13.9648C5.08285 13.9229 4.67759 13.7215 4.38083 13.3993C4.08406 13.077 3.91666 12.6566 3.91072 12.2185C3.90878 11.8189 3.82889 11.4235 3.6755 11.0544C3.14971 9.81681 1.94181 6.76244 1.9732 4.89159C2.3006 4.37488 2.67675 3.89073 3.09649 3.44577C2.95805 5.5866 3.45677 7.72047 4.52972 9.57811C4.67677 9.83042 4.88076 10.0449 5.12541 10.2043C5.37006 10.3637 5.64859 10.4638 5.93878 10.4964C6.3115 10.5377 6.50102 10.6124 6.59439 10.6677C6.84835 10.8181 7.06075 11.0295 7.21234 11.2828C7.36393 11.5361 7.4499 11.8232 7.46247 12.1181C7.47532 12.3555 7.54413 12.5866 7.66328 12.7923C7.78243 12.9981 7.94855 13.1728 8.14808 13.3022C8.22332 13.3516 8.28893 13.393 8.34326 13.4251C9.12554 13.8896 10.4407 14.3215 11.4064 14.6023C11.6466 14.6718 11.8981 14.6932 12.1465 14.665C12.3949 14.6369 12.6353 14.5599 12.8538 14.4385C13.0908 14.3094 13.3572 14.244 13.6269 14.2486C13.8967 14.2532 14.1607 14.3277 14.3931 14.4648C14.4 14.4688 14.4072 14.4733 14.4148 14.4781C14.7241 14.6779 15.0841 14.7851 15.4523 14.7873C15.5618 14.7873 15.6711 14.7774 15.7789 14.7576C16.8158 14.5678 17.8193 14.2269 18.7573 13.7456C18.5926 14.1283 18.4033 14.5 18.1907 14.8584ZM19.0232 13.0551C17.9927 13.6559 16.8656 14.073 15.6923 14.2877C15.3373 14.3487 14.9725 14.2728 14.6713 14.0753C14.6597 14.0679 14.6483 14.0609 14.637 14.0542C14.3331 13.8748 13.9879 13.7773 13.6351 13.7713C13.2822 13.7652 12.9339 13.8507 12.624 14.0195C12.4603 14.1107 12.2802 14.1686 12.0941 14.1899C11.9079 14.2112 11.7194 14.1954 11.5394 14.1436C10.7706 13.9202 9.36514 13.4764 8.58716 13.0144C8.53936 12.986 8.47985 12.9485 8.41066 12.9029C8.27425 12.8151 8.1605 12.6964 8.0787 12.5563C7.99691 12.4163 7.94938 12.2589 7.93999 12.097C7.92401 11.7228 7.81489 11.3585 7.62253 11.0372C7.43017 10.7159 7.16064 10.4476 6.83841 10.2569C6.64366 10.1413 6.3587 10.062 5.99136 10.0213C5.77549 9.9971 5.56828 9.92271 5.38627 9.80411C5.20427 9.68551 5.05252 9.52599 4.94315 9.33829C3.82346 7.40014 3.361 5.15165 3.62488 2.92888C4.15701 2.44734 4.74255 2.02836 5.37004 1.68013C5.24277 2.65594 5.27047 3.64572 5.4521 4.61289C5.4664 4.68639 5.45166 4.76258 5.41099 4.82546C5.39904 4.84358 5.38832 4.86075 5.37936 4.87589C5.07413 5.39009 4.98563 6.00448 5.13333 6.58393C5.28103 7.16338 5.65283 7.66042 6.16694 7.96573C6.29126 8.03955 6.47899 8.11229 6.72492 8.18192C6.88088 8.22606 7.01781 8.32067 7.11425 8.45095C7.98588 9.63386 9.12276 10.5958 10.4336 11.2596C11.7444 11.9234 13.1926 12.2704 14.6618 12.2729C14.7733 12.2729 14.8855 12.2709 14.9973 12.2669C16.5798 12.2108 18.1225 11.7559 19.4822 10.9443C19.4107 11.6631 19.2566 12.3713 19.0231 13.0549L19.0232 13.0551ZM19.5217 10.3566C18.1657 11.2368 16.5959 11.732 14.9803 11.7892C13.5331 11.8385 12.0956 11.5346 10.7922 10.9036C9.48885 10.2727 8.35874 9.33374 7.49964 8.16794C7.34007 7.95204 7.1134 7.79519 6.85514 7.72196C6.70121 7.68323 6.55219 7.6271 6.41096 7.55464C6.00585 7.31408 5.71288 6.92244 5.59648 6.46586C5.48008 6.00928 5.54979 5.52516 5.79028 5.11998C5.79618 5.1101 5.80334 5.09882 5.81119 5.08679C5.91935 4.92093 5.95906 4.7196 5.92197 4.52508C5.72881 3.49645 5.71937 2.44172 5.89408 1.40979C6.45888 1.14105 7.04855 0.928052 7.65471 0.773828C7.78947 0.739488 7.92446 0.708189 8.05965 0.679931C7.79783 1.63205 7.76771 2.96489 7.77628 3.7371C7.77822 3.8913 7.82015 4.04235 7.89795 4.17548C7.97576 4.30862 8.08679 4.41928 8.22018 4.49664L8.22484 4.49943C8.5208 4.67537 8.75934 4.93344 8.91152 5.24232C9.06369 5.55121 9.12296 5.89762 9.08212 6.23953C9.0513 6.47762 9.07426 6.71959 9.14929 6.94764C9.22433 7.17569 9.34954 7.38401 9.51571 7.55727C9.9518 8.00668 10.5771 8.605 11.0796 8.90338C12.1566 9.5414 13.3853 9.87816 14.6371 9.8784C14.9581 9.87844 15.2788 9.85605 15.5967 9.8114C16.987 9.61451 18.2859 9.00388 19.3246 8.05891C19.483 8.81393 19.5492 9.5854 19.5216 10.3564L19.5217 10.3566Z" fill="url(#paint0_linear)"/>
<defs>
<linearGradient id="paint0_linear" x1="10" y1="0" x2="10" y2="20" gradientUnits="userSpaceOnUse">
<stop stop-color="#3EACDF"/>
<stop offset="1" stop-color="#19E5F8"/>
<stop offset="1" stop-color="#59A2CC"/>
</linearGradient>
</defs>
</svg>
