<svg width="48" height="48" viewBox="0 0 48 48" fill="none" xmlns="http://www.w3.org/2000/svg">
<path d="M41.1623 18.75H35.3377L33.8377 30.75H27.75V18.75H24.75V15.75H20.25V8.25H18.6788L17.9288 0.75H13.5705L12.8205 8.25H11.25V5.25H5.25V8.25H3.75V25.9807C1.905 27.756 0.75 30.2437 0.75 33C0.75 35.7562 1.905 38.244 3.75 40.0192V47.25H45.75V30.75H42.6623L41.1623 18.75ZM39.8377 20.25L40.0252 21.75H36.4748L36.6623 20.25H39.8377ZM36.2873 23.25H40.2127L41.1502 30.75H35.349L36.2873 23.25ZM26.25 30.75H19.9777C19.1295 27.1807 16.32 24.3705 12.75 23.5223V20.25H26.25V30.75ZM13.2855 40.7557C13.7003 40.0665 14.0527 39.2212 14.3287 38.25H16.8585C15.924 39.3802 14.691 40.2487 13.2855 40.7557ZM4.14075 38.25H6.6705C6.9465 39.2212 7.29825 40.0665 7.71375 40.7557C6.309 40.2487 5.076 39.3802 4.14075 38.25ZM7.7145 25.2443C7.299 25.9335 6.94725 26.7787 6.67125 27.75H4.14075C5.076 26.6198 6.309 25.7513 7.7145 25.2443ZM8.25 14.25H5.25V12.75H8.25V14.25ZM8.25 15.75V17.25H5.25V15.75H8.25ZM8.25 18.75V20.25H5.25V18.75H8.25ZM14.9835 32.25C14.949 31.1857 14.8455 30.1777 14.6768 29.25H17.8387C18.3083 30.1658 18.6143 31.1775 18.7118 32.25H14.9835ZM7.51575 32.25C7.55475 31.1647 7.6785 30.1567 7.86075 29.25H13.1392C13.3222 30.1567 13.4453 31.1647 13.4843 32.25H7.51575ZM13.4843 33.75C13.4453 34.8353 13.3215 35.8433 13.1392 36.75H7.86075C7.67775 35.8433 7.55475 34.8353 7.51575 33.75H13.4843ZM14.3287 27.75C14.0527 26.7787 13.701 25.9335 13.2855 25.2443C14.691 25.7505 15.924 26.6198 16.8585 27.75H14.3287ZM12.7568 27.75H8.2425C8.83425 25.8953 9.69375 24.75 10.4992 24.75C11.3047 24.75 12.165 25.8953 12.7568 27.75ZM6.32325 29.25C6.1545 30.1777 6.051 31.1857 6.0165 32.25H2.28825C2.38575 31.1775 2.691 30.1658 3.16125 29.25H6.32325ZM6.0165 33.75C6.051 34.8143 6.1545 35.8223 6.32325 36.75H3.1605C2.691 35.8343 2.385 34.8225 2.2875 33.75H6.0165ZM8.24325 38.25H12.7575C12.1658 40.1048 11.3063 41.25 10.5008 41.25C9.69525 41.25 8.835 40.1048 8.24325 38.25ZM17.8395 36.75H14.6775C14.8462 35.8223 14.9497 34.8143 14.9843 33.75H18.7125C18.615 34.8225 18.309 35.8343 17.8395 36.75ZM23.25 18.75H15.75V17.25H23.25V18.75ZM18.75 15.75H14.25V18.75H11.25V23.2882C11.0017 23.2688 10.7535 23.25 10.5 23.25C10.2465 23.25 9.99825 23.2688 9.75 23.2882V9.75H18.75V15.75ZM14.9288 2.25H16.5705L17.1705 8.25H14.328L14.9288 2.25ZM6.75 6.75H9.75V8.25H6.75V6.75ZM8.25 9.75V11.25H5.25V9.75H8.25ZM5.25 21.75H8.25V23.5223C7.16925 23.7788 6.159 24.213 5.25 24.7972V21.75ZM5.25 41.2028C6.76725 42.177 8.5665 42.75 10.5 42.75C12.4335 42.75 14.2327 42.177 15.75 41.2028V45.75H5.25V41.2028ZM23.25 45.75H20.25V39.75H23.25V45.75ZM32.25 45.75H29.25V39.75H32.25V45.75ZM41.25 45.75H38.25V39.75H41.25V45.75ZM42.75 45.75V38.25H36.75V45.75H33.75V38.25H27.75V45.75H24.75V38.25H18.75V45.75H17.25V40.0192C18.576 38.7435 19.5382 37.0988 19.9777 35.25H44.25V45.75H42.75ZM44.25 33.75H20.2118C20.2312 33.5018 20.25 33.2535 20.25 33C20.25 32.7465 20.2312 32.4982 20.2118 32.25H44.25V33.75Z" fill="#047884"/>
<path d="M43.5 8.25H41.9797C41.7922 6.56475 40.3598 5.25 38.625 5.25H36.75V6.75H38.625C39.6593 6.75 40.5 7.5915 40.5 8.625V9.75H43.5C44.7405 9.75 45.75 10.7595 45.75 12C45.75 13.2405 44.7405 14.25 43.5 14.25H41.25C40.0095 14.25 39 15.2595 39 16.5V17.25H40.5V16.5C40.5 16.0868 40.836 15.75 41.25 15.75H43.5C45.5677 15.75 47.25 14.0677 47.25 12C47.25 9.93225 45.5677 8.25 43.5 8.25Z" fill="#047884"/>
<path d="M30 15.75H35.25C35.664 15.75 36 16.0868 36 16.5V17.25H37.5V16.5C37.5 15.2595 36.4905 14.25 35.25 14.25H30C29.586 14.25 29.25 13.9132 29.25 13.5C29.25 13.0868 29.586 12.75 30 12.75H34.5V11.25H33C31.7595 11.25 30.75 10.2405 30.75 9C30.75 7.7595 31.7595 6.75 33 6.75H35.25V5.25H33C30.9323 5.25 29.25 6.93225 29.25 9C29.25 9.8475 29.5433 10.6215 30.0195 11.25H30C28.7595 11.25 27.75 12.2595 27.75 13.5C27.75 14.7405 28.7595 15.75 30 15.75Z" fill="#047884"/>
<path d="M23.25 21.75H24.75V23.25H23.25V21.75Z" fill="#047884"/>
<path d="M17.25 21.75H18.75V23.25H17.25V21.75Z" fill="#047884"/>
<path d="M14.25 21.75H15.75V23.25H14.25V21.75Z" fill="#047884"/>
<path d="M20.25 21.75H21.75V23.25H20.25V21.75Z" fill="#047884"/>
<path d="M20.25 24.75H21.75V26.25H20.25V24.75Z" fill="#047884"/>
<path d="M23.25 24.75H24.75V26.25H23.25V24.75Z" fill="#047884"/>
<path d="M20.25 27.75H21.75V29.25H20.25V27.75Z" fill="#047884"/>
<path d="M23.25 27.75H24.75V29.25H23.25V27.75Z" fill="#047884"/>
</svg>
