<svg width="80" height="80" viewBox="0 0 80 80" fill="none" xmlns="http://www.w3.org/2000/svg">
<path d="M50.4998 27.8334C49.5933 27.8334 48.7072 28.1022 47.9535 28.6058C47.1998 29.1094 46.6123 29.8252 46.2654 30.6627C45.9185 31.5002 45.8277 32.4218 46.0046 33.3109C46.1814 34.1999 46.6179 35.0166 47.2589 35.6576C47.8999 36.2986 48.7166 36.7351 49.6057 36.912C50.4948 37.0888 51.4163 36.9981 52.2538 36.6512C53.0913 36.3042 53.8071 35.7168 54.3107 34.9631C54.8144 34.2093 55.0832 33.3232 55.0832 32.4167C55.0817 31.2016 54.5984 30.0366 53.7391 29.1774C52.8799 28.3182 51.715 27.8348 50.4998 27.8334ZM50.4998 35.1667C49.9559 35.1667 49.4243 35.0054 48.972 34.7032C48.5198 34.4011 48.1673 33.9716 47.9592 33.4691C47.751 32.9666 47.6966 32.4137 47.8027 31.8802C47.9088 31.3468 48.1707 30.8568 48.5553 30.4722C48.9399 30.0876 49.4299 29.8257 49.9633 29.7195C50.4968 29.6134 51.0497 29.6679 51.5522 29.876C52.0547 30.0842 52.4842 30.4367 52.7864 30.8889C53.0886 31.3411 53.2498 31.8728 53.2498 32.4167C53.2498 33.146 52.9601 33.8455 52.4444 34.3612C51.9287 34.877 51.2292 35.1667 50.4998 35.1667Z" fill="white"/>
<path d="M66.0835 62.6667H67.9168C68.1599 62.6667 68.3931 62.7632 68.565 62.9352C68.7369 63.1071 68.8335 63.3402 68.8335 63.5833C68.8335 63.8264 68.9301 64.0596 69.102 64.2315C69.2739 64.4034 69.507 64.5 69.7502 64.5C69.9933 64.5 70.2264 64.4034 70.3983 64.2315C70.5703 64.0596 70.6668 63.8264 70.6668 63.5833C70.6668 62.854 70.3771 62.1545 69.8614 61.6388C69.3456 61.1231 68.6462 60.8333 67.9168 60.8333V59.9167C67.9168 59.6736 67.8203 59.4404 67.6483 59.2685C67.4764 59.0966 67.2433 59 67.0002 59C66.757 59 66.5239 59.0966 66.352 59.2685C66.1801 59.4404 66.0835 59.6736 66.0835 59.9167V60.8333C65.3542 60.8333 64.6547 61.1231 64.139 61.6388C63.6232 62.1545 63.3335 62.854 63.3335 63.5833C63.3335 64.3127 63.6232 65.0122 64.139 65.5279C64.6547 66.0436 65.3542 66.3333 66.0835 66.3333H67.9168C68.1599 66.3333 68.3931 66.4299 68.565 66.6018C68.7369 66.7737 68.8335 67.0069 68.8335 67.25C68.8335 67.4931 68.7369 67.7263 68.565 67.8982C68.3931 68.0701 68.1599 68.1667 67.9168 68.1667H66.0835C65.8404 68.1667 65.6072 68.0701 65.4353 67.8982C65.2634 67.7263 65.1668 67.4931 65.1668 67.25C65.1668 67.0069 65.0703 66.7737 64.8983 66.6018C64.7264 66.4299 64.4933 66.3333 64.2502 66.3333C64.007 66.3333 63.7739 66.4299 63.602 66.6018C63.4301 66.7737 63.3335 67.0069 63.3335 67.25C63.3335 67.9793 63.6232 68.6788 64.139 69.1945C64.6547 69.7103 65.3542 70 66.0835 70V70.9167C66.0835 71.1598 66.1801 71.3929 66.352 71.5648C66.5239 71.7368 66.757 71.8333 67.0002 71.8333C67.2433 71.8333 67.4764 71.7368 67.6483 71.5648C67.8203 71.3929 67.9168 71.1598 67.9168 70.9167V70C68.6462 70 69.3456 69.7103 69.8614 69.1945C70.3771 68.6788 70.6668 67.9793 70.6668 67.25C70.6668 66.5207 70.3771 65.8212 69.8614 65.3055C69.3456 64.7897 68.6462 64.5 67.9168 64.5H66.0835C65.8404 64.5 65.6072 64.4034 65.4353 64.2315C65.2634 64.0596 65.1668 63.8264 65.1668 63.5833C65.1668 63.3402 65.2634 63.1071 65.4353 62.9352C65.6072 62.7632 65.8404 62.6667 66.0835 62.6667Z" fill="white"/>
<path d="M71.5833 54.8292V52.73L73.3708 47.3767C73.4163 47.2388 73.4284 47.0921 73.406 46.9487C73.3837 46.8053 73.3277 46.6692 73.2425 46.5517C73.1591 46.4323 73.0479 46.3349 72.9186 46.2678C72.7893 46.2007 72.6457 46.166 72.5 46.1667H67.9167V32.4167C67.9167 32.1736 67.8201 31.9404 67.6482 31.7685C67.4763 31.5966 67.2431 31.5 67 31.5H62.4167V30.5833C62.4167 30.3402 62.3201 30.1071 62.1482 29.9352C61.9763 29.7632 61.7431 29.6667 61.5 29.6667H59.245C59.0863 29.1539 58.8807 28.6568 58.6308 28.1817L60.2258 26.5867C60.3976 26.4136 60.4939 26.1797 60.4939 25.9358C60.4939 25.692 60.3976 25.4581 60.2258 25.285L57.6317 22.6908C57.4586 22.5191 57.2247 22.4227 56.9808 22.4227C56.737 22.4227 56.5031 22.5191 56.33 22.6908L54.735 24.2858C54.2599 24.0359 53.7628 23.8303 53.25 23.6717V21.4167C53.25 21.1736 53.1534 20.9404 52.9815 20.7685C52.8096 20.5966 52.5764 20.5 52.3333 20.5H48.6667C48.4236 20.5 48.1904 20.5966 48.0185 20.7685C47.8466 20.9404 47.75 21.1736 47.75 21.4167V23.6717C47.2372 23.8303 46.7401 24.0359 46.265 24.2858L44.67 22.6908C44.4969 22.5191 44.263 22.4227 44.0192 22.4227C43.7753 22.4227 43.5414 22.5191 43.3683 22.6908L40.7742 25.285C40.6024 25.4581 40.5061 25.692 40.5061 25.9358C40.5061 26.1797 40.6024 26.4136 40.7742 26.5867L42.3692 28.1817C42.1193 28.6568 41.9137 29.1539 41.755 29.6667H39.5C39.2569 29.6667 39.0237 29.7632 38.8518 29.9352C38.6799 30.1071 38.5833 30.3402 38.5833 30.5833V31.5H34C33.7569 31.5 33.5237 31.5966 33.3518 31.7685C33.1799 31.9404 33.0833 32.1736 33.0833 32.4167V44.4158C31.7236 44.6457 30.4997 45.378 29.6544 46.4676C28.8091 47.5572 28.4039 48.9246 28.5193 50.2989C28.6346 51.6731 29.262 52.9539 30.2771 53.8873C31.2922 54.8208 32.6209 55.3389 34 55.3389C35.3791 55.3389 36.7078 54.8208 37.7229 53.8873C38.738 52.9539 39.3654 51.6731 39.4807 50.2989C39.5961 48.9246 39.1909 47.5572 38.3456 46.4676C37.5003 45.378 36.2764 44.6457 34.9167 44.4158V33.3333H38.5833V34.25C38.5833 34.4931 38.6799 34.7263 38.8518 34.8982C39.0237 35.0701 39.2569 35.1667 39.5 35.1667H41.755C41.9137 35.6795 42.1193 36.1766 42.3692 36.6517L40.7742 38.2467C40.6024 38.4197 40.5061 38.6537 40.5061 38.8975C40.5061 39.1413 40.6024 39.3753 40.7742 39.5483L43.3683 42.1425C43.5414 42.3142 43.7753 42.4106 44.0192 42.4106C44.263 42.4106 44.4969 42.3142 44.67 42.1425L46.265 40.5475C46.7401 40.7974 47.2372 41.003 47.75 41.1617V43.4167C47.75 43.6598 47.8466 43.8929 48.0185 44.0648C48.1904 44.2368 48.4236 44.3333 48.6667 44.3333H52.3333C52.5764 44.3333 52.8096 44.2368 52.9815 44.0648C53.1534 43.8929 53.25 43.6598 53.25 43.4167V41.1617C53.7628 41.003 54.2599 40.7974 54.735 40.5475L56.33 42.1425C56.5031 42.3142 56.737 42.4106 56.9808 42.4106C57.2247 42.4106 57.4586 42.3142 57.6317 42.1425L60.2258 39.5483C60.3976 39.3753 60.4939 39.1413 60.4939 38.8975C60.4939 38.6537 60.3976 38.4197 60.2258 38.2467L58.6308 36.6517C58.8807 36.1766 59.0863 35.6795 59.245 35.1667H61.5C61.7431 35.1667 61.9763 35.0701 62.1482 34.8982C62.3201 34.7263 62.4167 34.4931 62.4167 34.25V33.3333H66.0833V46.1667H61.5C61.3543 46.166 61.2107 46.2007 61.0814 46.2678C60.9521 46.3349 60.8409 46.4323 60.7575 46.5517C60.6723 46.6692 60.6163 46.8053 60.594 46.9487C60.5716 47.0921 60.5837 47.2388 60.6292 47.3767L62.4167 52.73V54.8292C60.6145 55.9887 59.1023 57.546 57.9963 59.3815C56.8902 61.2169 56.2198 63.2816 56.0367 65.4167H45V61.75C44.9981 60.0488 44.3214 58.4178 43.1185 57.2149C41.9155 56.0119 40.2845 55.3353 38.5833 55.3333H29.4167C27.7155 55.3353 26.0845 56.0119 24.8815 57.2149C23.6786 58.4178 23.0019 60.0488 23 61.75V74.5833C23 74.8265 23.0966 75.0596 23.2685 75.2315C23.4404 75.4034 23.6736 75.5 23.9167 75.5H44.0833C44.3264 75.5 44.5596 75.4034 44.7315 75.2315C44.9034 75.0596 45 74.8265 45 74.5833V67.25H56.0458C56.495 72.2917 60.6933 75.5 67 75.5C73.6825 75.5 78 71.8975 78 66.3333C77.9601 64.0358 77.3535 61.7836 76.2341 59.7767C75.1147 57.7698 73.5172 56.0704 71.5833 54.8292ZM37.6667 49.8333C37.6667 50.5585 37.4516 51.2674 37.0487 51.8704C36.6458 52.4734 36.0732 52.9434 35.4032 53.2209C34.7332 53.4984 33.9959 53.571 33.2847 53.4295C32.5734 53.2881 31.9201 52.9389 31.4073 52.4261C30.8945 51.9133 30.5453 51.2599 30.4038 50.5487C30.2623 49.8374 30.3349 49.1002 30.6124 48.4302C30.89 47.7602 31.3599 47.1875 31.9629 46.7846C32.5659 46.3817 33.2748 46.1667 34 46.1667C34.9725 46.1667 35.9051 46.553 36.5927 47.2406C37.2804 47.9282 37.6667 48.8609 37.6667 49.8333ZM60.5833 33.3333H58.5483C58.3405 33.3319 58.1385 33.4023 57.9765 33.5326C57.8145 33.6629 57.7024 33.845 57.6592 34.0483C57.4684 34.8533 57.1463 35.6214 56.7058 36.3217C56.5952 36.4976 56.5476 36.7059 56.5709 36.9125C56.5943 37.119 56.6871 37.3115 56.8342 37.4583L58.2825 38.8975L56.9808 40.1992L55.5417 38.7508C55.3937 38.6056 55.2014 38.5141 54.9954 38.4909C54.7895 38.4676 54.5816 38.5139 54.405 38.6225C53.7039 39.0614 52.9361 39.3834 52.1317 39.5758C51.9283 39.6191 51.7462 39.7312 51.6159 39.8932C51.4857 40.0552 51.4153 40.2571 51.4167 40.465V42.5H49.5833V40.465C49.5847 40.2571 49.5143 40.0552 49.3841 39.8932C49.2538 39.7312 49.0717 39.6191 48.8683 39.5758C48.0639 39.3834 47.2961 39.0614 46.595 38.6225C46.4184 38.5139 46.2106 38.4676 46.0046 38.4909C45.7986 38.5141 45.6063 38.6056 45.4583 38.7508L44.0192 40.1992L42.7175 38.8975L44.1658 37.4583C44.3129 37.3115 44.4057 37.119 44.4291 36.9125C44.4524 36.7059 44.4048 36.4976 44.2942 36.3217C43.8537 35.6214 43.5316 34.8533 43.3408 34.0483C43.2976 33.845 43.1855 33.6629 43.0235 33.5326C42.8615 33.4023 42.6595 33.3319 42.4517 33.3333H40.4167V31.5H42.4517C42.6595 31.5014 42.8615 31.431 43.0235 31.3007C43.1855 31.1705 43.2976 30.9883 43.3408 30.785C43.5316 29.98 43.8537 29.2119 44.2942 28.5117C44.4048 28.3357 44.4524 28.1274 44.4291 27.9209C44.4057 27.7143 44.3129 27.5219 44.1658 27.375L42.7175 25.9358L44.0192 24.6342L45.4583 26.0825C45.6052 26.2296 45.7977 26.3224 46.0042 26.3457C46.2107 26.369 46.4191 26.3215 46.595 26.2108C47.2953 25.7704 48.0633 25.4483 48.8683 25.2575C49.0717 25.2142 49.2538 25.1022 49.3841 24.9402C49.5143 24.7782 49.5847 24.5762 49.5833 24.3683V22.3333H51.4167V24.3683C51.4153 24.5762 51.4857 24.7782 51.6159 24.9402C51.7462 25.1022 51.9283 25.2142 52.1317 25.2575C52.9367 25.4483 53.7047 25.7704 54.405 26.2108C54.5809 26.3215 54.7893 26.369 54.9958 26.3457C55.2023 26.3224 55.3948 26.2296 55.5417 26.0825L56.9808 24.6342L58.2825 25.9358L56.8342 27.375C56.6871 27.5219 56.5943 27.7143 56.5709 27.9209C56.5476 28.1274 56.5952 28.3357 56.7058 28.5117C57.1463 29.2119 57.4684 29.98 57.6592 30.785C57.7024 30.9883 57.8145 31.1705 57.9765 31.3007C58.1385 31.431 58.3405 31.5014 58.5483 31.5H60.5833V33.3333ZM35.265 57.1667L34.3483 59H33.6517L32.735 57.1667H35.265ZM24.8333 73.6667V61.75C24.8369 60.9544 25.0476 60.1734 25.4446 59.4839C25.8416 58.7944 26.4112 58.2201 27.0975 57.8175L31.855 73.6667H24.8333ZM31.2592 65.3158L28.83 57.2217C29.0225 57.2033 29.215 57.1667 29.4167 57.1667H30.6817L32.13 60.0633L31.2592 65.3158ZM34.2383 73.6667H33.7617L32.4508 69.2942L33.8625 60.8333H34.1375L35.5492 69.2942L34.2383 73.6667ZM37.3183 57.1667H38.5833C38.785 57.1667 38.9775 57.2033 39.17 57.2217L36.7408 65.3158L35.87 60.0633L37.3183 57.1667ZM43.1667 73.6667H36.145L40.9025 57.8175C41.5888 58.2201 42.1584 58.7944 42.5554 59.4839C42.9524 60.1734 43.1631 60.9544 43.1667 61.75V73.6667ZM71.2258 48L70.0067 51.6667H63.9933L62.7742 48H71.2258ZM69.75 53.5V54.4167H64.25V53.5H69.75ZM67 73.6667C64.8458 73.6667 57.8333 73.135 57.8333 66.3333C57.8781 64.3031 58.4309 62.3165 59.4413 60.5551C60.4518 58.7936 61.8876 57.3135 63.6175 56.25H70.3825C72.1124 57.3135 73.5482 58.7936 74.5587 60.5551C75.5691 62.3165 76.122 64.3031 76.1667 66.3333C76.1667 73.135 69.1542 73.6667 67 73.6667Z" fill="white"/>
</svg>
