<svg width="48" height="48" viewBox="0 0 48 48" fill="none" xmlns="http://www.w3.org/2000/svg">
<path d="M43.8621 11.5862H30.6207C29.2519 11.5862 28.1379 10.4723 28.1379 9.10348C28.1379 6.82182 26.2817 4.96555 24 4.96555H10.7586C8.47697 4.96555 6.62069 6.82182 6.62069 9.10348C6.62069 10.4723 5.50676 11.5862 4.13793 11.5862C1.85628 11.5862 0 13.4425 0 15.7242V38.8966C0 41.1782 1.85628 43.0345 4.13793 43.0345H43.8621C46.1437 43.0345 48 41.1782 48 38.8966V15.7242C48 13.4425 46.1437 11.5862 43.8621 11.5862ZM46.3448 38.8966C46.3448 40.2654 45.2309 41.3793 43.8621 41.3793H4.13793C2.7691 41.3793 1.65517 40.2654 1.65517 38.8966V15.7242C1.65517 14.3553 2.7691 13.2414 4.13793 13.2414C6.41959 13.2414 8.27586 11.3851 8.27586 9.10348C8.27586 7.73465 9.38979 6.62072 10.7586 6.62072H24C25.3688 6.62072 26.4828 7.73465 26.4828 9.10348C26.4828 11.3851 28.339 13.2414 30.6207 13.2414H43.8621C45.2309 13.2414 46.3448 14.3553 46.3448 15.7242V38.8966Z" fill="white"/>
<path d="M17.3797 14.8966C11.4476 14.8966 6.62109 19.7231 6.62109 25.6552C6.62109 31.5873 11.4476 36.4138 17.3797 36.4138C23.3119 36.4138 28.1383 31.5873 28.1383 25.6552C28.1383 19.7231 23.3119 14.8966 17.3797 14.8966ZM17.3797 34.7586C12.3604 34.7586 8.27627 30.6745 8.27627 25.6552C8.27627 20.6359 12.3604 16.5517 17.3797 16.5517C22.399 16.5517 26.4832 20.6359 26.4832 25.6552C26.4832 30.6745 22.399 34.7586 17.3797 34.7586Z" fill="white"/>
<path d="M38.8968 14.8966C37.528 14.8966 36.4141 16.0105 36.4141 17.3793C36.4141 18.7482 37.528 19.8621 38.8968 19.8621C40.2657 19.8621 41.3796 18.7482 41.3796 17.3793C41.3796 16.0105 40.2657 14.8966 38.8968 14.8966ZM38.8968 18.2069C38.44 18.2069 38.0692 17.8362 38.0692 17.3793C38.0692 16.9225 38.44 16.5517 38.8968 16.5517C39.3536 16.5517 39.7244 16.9225 39.7244 17.3793C39.7244 17.8362 39.3536 18.2069 38.8968 18.2069Z" fill="white"/>
<path d="M40.5518 28.1379H33.9311C33.4734 28.1379 33.1035 28.5079 33.1035 28.9655C33.1035 29.4232 33.4734 29.7931 33.9311 29.7931H40.5518C41.0095 29.7931 41.3794 29.4232 41.3794 28.9655C41.3794 28.5079 41.0095 28.1379 40.5518 28.1379Z" fill="white"/>
<path d="M40.5518 31.4482H33.9311C33.4734 31.4482 33.1035 31.8182 33.1035 32.2758C33.1035 32.7335 33.4734 33.1034 33.9311 33.1034H40.5518C41.0095 33.1034 41.3794 32.7335 41.3794 32.2758C41.3794 31.8182 41.0095 31.4482 40.5518 31.4482Z" fill="white"/>
<path d="M40.5518 34.7587H33.9311C33.4734 34.7587 33.1035 35.1286 33.1035 35.5863C33.1035 36.0439 33.4734 36.4138 33.9311 36.4138H40.5518C41.0095 36.4138 41.3794 36.0439 41.3794 35.5863C41.3794 35.1286 41.0095 34.7587 40.5518 34.7587Z" fill="white"/>
</svg>
