<svg width="56" height="56" viewBox="0 0 56 56" fill="none" xmlns="http://www.w3.org/2000/svg">
<g clip-path="url(#clip0)">
<path d="M10.4187 15.9102L24.4018 50.1758C25.0064 51.6592 26.7077 52.3742 28.191 51.7686L44.8558 44.9674C46.3392 44.3619 47.0532 42.6616 46.4466 41.1783L32.4635 6.91349C31.859 5.42923 30.1577 4.71417 28.6743 5.32073L12.0106 12.122C10.5262 12.7275 9.8141 14.4269 10.4187 15.9102ZM29.1034 6.37305C30.0068 6.00526 31.0434 6.44009 31.4112 7.34255L45.3943 41.6081C45.7642 42.5116 45.3292 43.5471 44.4257 43.915L27.761 50.7162C26.8576 51.0851 25.823 50.6501 25.4532 49.7468L11.4701 15.4801C11.1022 14.5777 11.5352 13.5422 12.4385 13.1743L29.1034 6.37305Z" fill="white"/>
<path d="M25.9526 47.2407L43.285 40.1673C43.432 40.1072 43.5011 39.9415 43.4409 39.7964L31.165 9.71452C31.1049 9.56951 30.9392 9.50051 30.7951 9.55971L13.4627 16.6341C13.3157 16.6933 13.2467 16.859 13.3069 17.0039L25.5827 47.0849C25.643 47.2308 25.8077 47.301 25.9526 47.2407ZM31.1197 11.1062L42.435 38.8359C42.6411 39.3399 42.3985 39.9158 41.8945 40.122L26.9143 46.2357C26.4103 46.4419 25.8343 46.1992 25.6282 45.6953L14.313 17.9657C14.1068 17.4616 14.3495 16.8857 14.8534 16.6795L29.8337 10.5657C30.3384 10.3595 30.9135 10.6012 31.1197 11.1062Z" fill="white"/>
<path d="M19.9966 12.0984L22.9534 10.8902C23.0994 10.8301 23.1694 10.6643 23.1093 10.5204C23.0501 10.3744 22.8844 10.3054 22.7394 10.3645L19.7806 11.5727C19.6366 11.6319 19.5666 11.7975 19.6247 11.9425C19.684 12.0874 19.8498 12.1575 19.9966 12.0984Z" fill="white"/>
<path d="M37.9688 44.3549C37.7144 43.7326 37.0023 43.4328 36.38 43.6863L33.3502 44.923C32.7279 45.1776 32.4271 45.8895 32.6816 46.5109L32.7565 46.6925C33.009 47.3148 33.7221 47.6146 34.3454 47.3611L37.3732 46.1244C37.9955 45.8698 38.2963 45.1579 38.0418 44.5355L37.9688 44.3549ZM37.1591 45.5987L34.1293 46.8354C33.7979 46.9705 33.4162 46.8108 33.2821 46.4783L33.207 46.2968C33.0719 45.9654 33.2317 45.5849 33.5651 45.4496L36.5949 44.2129C36.9263 44.0777 37.308 44.2376 37.4421 44.569L37.5151 44.7505C37.6502 45.0819 37.4925 45.4625 37.1591 45.5987Z" fill="white"/>
<path d="M15.8437 6.21522C15.9827 6.07413 16.0577 5.88879 16.0557 5.69252C16.0557 5.60464 16.0399 5.5179 16.0093 5.43704C15.9018 5.14712 15.6217 4.9557 15.3139 4.95673C9.40238 4.98736 4.61512 9.82103 4.64565 15.7327C4.64761 16.1302 4.99282 16.4705 5.38928 16.4694C5.58555 16.4675 5.77099 16.3905 5.91095 16.2495C6.05008 16.1095 6.12496 15.923 6.12496 15.7258C6.09835 10.6288 10.2239 6.4609 15.3208 6.43522C15.5201 6.43522 15.7046 6.35724 15.8437 6.21522Z" fill="white"/>
<path d="M16.3099 1.78103C16.7163 1.77907 17.0457 1.44666 17.0457 1.03648C17.0438 0.949633 17.028 0.863822 16.9973 0.782034C16.8899 0.494072 16.6107 0.300688 16.3 0.302751C7.26792 0.346997 -0.0442509 7.73509 0.000201609 16.7712C0.00216123 17.1707 0.348292 17.5069 0.745786 17.506C0.942058 17.505 1.1275 17.4271 1.2656 17.2861C1.40463 17.146 1.48157 16.9596 1.47961 16.7634C1.43815 8.5438 8.09045 1.82352 16.3099 1.78103Z" fill="white"/>
<path d="M44.9319 49.657C44.7504 49.7408 44.6162 49.8898 44.5502 50.0771C44.4851 50.2645 44.496 50.4637 44.5788 50.6413C44.6172 50.7202 44.6675 50.7912 44.7307 50.8524C44.9507 51.0694 45.2849 51.1235 45.5651 50.9923C50.9046 48.4557 53.1879 42.05 50.6521 36.7084C50.4825 36.3494 50.0239 36.1876 49.6659 36.3563C49.4884 36.4421 49.3543 36.5901 49.2862 36.7774C49.2211 36.9629 49.23 37.164 49.3147 37.3425C51.5023 41.9474 49.5358 47.4705 44.9319 49.657Z" fill="white"/>
<path d="M53.4326 33.4478C53.255 33.5326 53.121 33.6816 53.0549 33.8689C52.9879 34.0544 52.9968 34.2556 53.0835 34.4322C56.6064 41.8577 53.4336 50.7656 46.01 54.2905C45.6422 54.465 45.4863 54.9059 45.6589 55.2776C45.6974 55.3556 45.7477 55.4256 45.8089 55.4877C46.0307 55.7028 46.3651 55.759 46.6451 55.6258C54.8054 51.7548 58.2919 41.9622 54.4178 33.7979C54.2493 33.4361 53.7916 33.2783 53.4326 33.4478Z" fill="white"/>
</g>
<defs>
<clipPath id="clip0">
<rect width="56" height="56" fill="white"/>
</clipPath>
</defs>
</svg>
